tipo,nome,crm,cidade,estado,telefone,centro,grupo,email,ativo
#,
#, Usuários teste
#,
admin,Administrador Teste,,São Paulo,SP,,,,concurso.clear@novartis.com,1
admin,Administrador Testes Trupe,,São Paulo,SP,,,,leila@trupe.net,1
admin,Daniel Malavazi,,São Paulo,SP,,,,dani_m_o@yahoo.com.br,1
admin,Clauber Reis,,São Paulo,SP,,,,Clauber.Reis@novartis.com,1
avaliador,Caio Teodoro,,São Paulo,SP,,,,caio.teodoro@novartis.com,1
avaliador,Daniel Malavazi,,Curitiba,PR,,,,danielmalavazi@bol.com.br,1
avaliador,Usuário Avaliador #3,,São Paulo/Santo André,SP,,,,avaliador3@teste.com,1
avaliador,Usuário Avaliador #4,,Rio de Janeiro,RJ,,,,avaliador4@teste.com,1
avaliador,Usuário Avaliador #5,,Belo Horizonte,MG,,,,avaliador5@teste.com,1
avaliador,Rodrigo Kurihara,,São Paulo,SP,,,,rodrigo.kurihara@novartis.com,1
coordenador,Coordenador Testes Trupe,,São Paulo,SP,,,,bruno@trupe.net,1
coordenador,Daniel Oliveira,,São Paulo,SP,,,,daniel.oliveira-ext@novartis.com,1
coordenador,Usuário Coordenador #2,,São Paulo,SP,,,,coordenador2@teste.com,1
medico,Usuário Médico Testes,,São Paulo,SP,,,,medico@teste.com,1
medico,Daniel Malavazi,,São Paulo,SP,,,,danielmalavazi40@gmail.com,1